<svg xmlns="http://www.w3.org/2000/svg" width="20" height="20" viewBox="0 0 20 20">
  <path id="About_Icon" data-name="About Icon" d="M10,20A10,10,0,1,1,20,10,10,10,0,0,1,10,20Zm0-2a8,8,0,1,0-8-8A8,8,0,0,0,10,18ZM10,8a1,1,0,0,1,1,1v5a1,1,0,0,1-2,0V9A1,1,0,0,1,10,8Zm0-1a1,1,0,1,1,1-1A1,1,0,0,1,10,7Z" fill="#a0a0a0"/>
</svg>
