<svg id="baidu-square" xmlns="http://www.w3.org/2000/svg" width="20" height="20" viewBox="0 0 20 20">
  <path id="Path_31" data-name="Path 31" d="M7.731,8.74c.058.85-.39,1.575-1,1.619S5.572,9.749,5.514,8.9s.391-1.575,1-1.619S7.674,7.89,7.731,8.74Zm4.217-3.524c-.6-.156-1.243.388-1.447,1.213a1.4,1.4,0,0,0,.7,1.777c.6.156,1.244-.387,1.448-1.213a1.6,1.6,0,0,0-.706-1.777ZM13.343,8c-.626.01-1.122.62-1.108,1.566s.53,1.376,1.157,1.367,1.122-.456,1.109-1.4A1.465,1.465,0,0,0,13.343,8ZM8.81,5.008c-.6,0-1.078.684-1.078,1.528S8.214,8.064,8.81,8.064,9.888,7.38,9.888,6.536,9.4,5.008,8.81,5.008ZM8.672,9.754A7.692,7.692,0,0,1,7.181,11.4c-.757.648-1.078,1.1-1.078,1.755s.367,1.755,1.41,1.755,1.549-.236,2.375-.236,1.376.33,2.42.33a1.589,1.589,0,0,0,1.48-1.673c0-.66-.182-1.033-1.018-1.785a9.427,9.427,0,0,1-1.7-1.89,1.268,1.268,0,0,0-1.181-.565,1.4,1.4,0,0,0-1.216.66Z" fill="#a0a0a0"/>
  <path id="Path_32" data-name="Path 32" d="M4,2A2,2,0,0,0,2,4V16a2,2,0,0,0,2,2H16a2,2,0,0,0,2-2V4a2,2,0,0,0-2-2ZM4,0H16a4,4,0,0,1,4,4V16a4,4,0,0,1-4,4H4a4,4,0,0,1-4-4V4A4,4,0,0,1,4,0Z" fill="#a0a0a0"/>
</svg>
