<svg xmlns="http://www.w3.org/2000/svg" width="27.979" height="19.585" viewBox="0 0 27.979 19.585">
  <path id="envelope" d="M5.033,2.8l8.04,7.162a1.4,1.4,0,0,0,1.861,0L22.975,2.8ZM25.181,4.579,16.8,12.05a4.2,4.2,0,0,1-5.585,0L2.8,4.552V16.787H25.181ZM2.8,0H25.181a2.8,2.8,0,0,1,2.8,2.8V16.787a2.8,2.8,0,0,1-2.8,2.8H2.8a2.8,2.8,0,0,1-2.8-2.8V2.8A2.8,2.8,0,0,1,2.8,0Z" fill="#3a9fb7"/>
</svg>
