<svg xmlns="http://www.w3.org/2000/svg" xmlns:xlink="http://www.w3.org/1999/xlink" width="62.527" height="76.466" viewBox="0 0 62.527 76.466">
  <defs>
    <filter id="Rectangle_497" x="5" y="7.466" width="52" height="48" filterUnits="userSpaceOnUse">
      <feOffset input="SourceAlpha"/>
      <feGaussianBlur stdDeviation="5" result="blur"/>
      <feFlood flood-opacity="0.161"/>
      <feComposite operator="in" in2="blur"/>
      <feComposite in="SourceGraphic"/>
    </filter>
    <filter id="map-marker-f" x="0" y="0" width="62.527" height="76.466" filterUnits="userSpaceOnUse">
      <feOffset input="SourceAlpha"/>
      <feGaussianBlur stdDeviation="5" result="blur-2"/>
      <feFlood flood-opacity="0.161"/>
      <feComposite operator="in" in2="blur-2"/>
      <feComposite in="SourceGraphic"/>
    </filter>
  </defs>
  <g id="Place_of_interest" data-name="Place of interest" transform="translate(21137 23021.466)">
    <g transform="matrix(1, 0, 0, 1, -21137, -23021.47)" filter="url(#Rectangle_497)">
      <rect id="Rectangle_497-2" data-name="Rectangle 497" width="22" height="18" transform="translate(20 22.47)" fill="#fff"/>
    </g>
    <g transform="matrix(1, 0, 0, 1, -21137, -23021.47)" filter="url(#map-marker-f)">
      <path id="map-marker-f-2" data-name="map-marker-f" d="M16.263,47.031Q0,25.808,0,16.828a16.263,16.263,0,0,1,32.527,0Q32.527,25.809,16.263,47.031Zm0-20.91A9.293,9.293,0,1,0,6.97,16.828,9.293,9.293,0,0,0,16.263,26.122Z" transform="translate(15 14.43)" fill="#a0a0a0"/>
    </g>
  </g>
</svg>
