<svg xmlns="http://www.w3.org/2000/svg" width="32.307" height="23.076" viewBox="0 0 32.307 23.076">
  <path id="Hamburger_Menu_Icon" data-name="Hamburger Menu Icon" d="M2.308,0H30a2.308,2.308,0,0,1,0,4.615H2.308A2.308,2.308,0,1,1,2.308,0Zm0,18.461H30a2.308,2.308,0,0,1,0,4.615H2.308a2.308,2.308,0,0,1,0-4.615Zm0-9.23H30a2.308,2.308,0,0,1,0,4.615H2.308a2.308,2.308,0,0,1,0-4.615Z" fill="#a0a0a0"/>
</svg>
