<svg xmlns="http://www.w3.org/2000/svg" width="19.577" height="21.53" viewBox="0 0 19.577 21.53">
  <g id="Icon_feather-home" data-name="Icon feather-home" transform="translate(-3.5 -2)">
    <path id="Path_864" data-name="Path 864" d="M4.5,9.835,13.288,3l8.788,6.835V20.577a1.953,1.953,0,0,1-1.953,1.953H6.453A1.953,1.953,0,0,1,4.5,20.577Z" fill="none" stroke="#3a9fb7" stroke-linecap="round" stroke-linejoin="round" stroke-width="2"/>
  </g>
</svg>
