<svg xmlns="http://www.w3.org/2000/svg" width="15.941" height="22.773" viewBox="0 0 15.941 22.773">
  <path id="Location_Icon" data-name="Location Icon" d="M13.664,7.971a5.693,5.693,0,1,0-11.387,0c0,1.965,1.89,5.729,5.693,10.992C11.774,13.7,13.664,9.936,13.664,7.971Zm-5.693,14.8Q0,12.372,0,7.971a7.971,7.971,0,1,1,15.941,0Q15.941,12.372,7.971,22.773Zm0-10.248a4.555,4.555,0,1,1,4.555-4.555A4.555,4.555,0,0,1,7.971,12.525Zm0-2.277A2.277,2.277,0,1,0,5.693,7.971,2.277,2.277,0,0,0,7.971,10.248Z" fill="#a0a0a0"/>
</svg>
